{
  "WellnessChallenge": {
    "ChallengeName": "Weight Loss {previousday}-{randomnumber}",
    "ChallengerName": "Kelli Ballard",
    "Description": "Every Week 20 pounds",
    "EndDate": "{endofnextmonth}",
    "GoalValue": 20,
    "StartDate": "{previousday}",
    "TimeLine": "each week",
    "WellnessChallengeType": "Healthy Weight Loss"
  },
  "CustomChallenge": {
    "ChallengeName": "Custom Onetime {startofnextmonth}-{randomnumber}",
    "ChallengerName": "Kelli Ballard",
    "CustomChallengeActionText": "Custom Onetime Challenge",
    "CustomChallengeGoal": 50,
    "CustomChallengeTime": "one time",
    "CustomChallengeUnit": "time(s)",
    "EndDate": "{endofnextmonth}",
    "GoalText": "One time 50 only",
    "StartDate": "{startofnextmonth}"
  }
}
