{
  "NewActivity1": {
    "Name": "Activity A - {randomnumber}",
    "Section": "Get Started",
    "Type": "Learning",
    "ActivityDateRange": "6 Months",
    "HideActivityEndDate": false,
    "TypeOfActivity": "One & Done",
    "Metric": "12-min Run - Miles (8) (Decimal)",
    "MinimumPoints": 5,
    "MaximumPoints": 10,
    "HideNonPointRewardTransaction": false,
    "IsCompletionMeasured": false,
    "MeasurePointValue": 10,
    "MeasureAward": 50
  },
  "NewActivity2": {
    "Name": "Activity B - {randomnumber}",
    "Section": "Get Started",
    "Type": "Learning",
    "ActivityDateRange": "6 Months",
    "HideActivityEndDate": false,
    "TypeOfActivity": "One & Done",
    "Metric": "12-min Run - Miles (8) (Decimal)",
    "MinimumPoints": 5,
    "MaximumPoints": 10,
    "HideNonPointRewardTransaction": false,
    "IsCompletionMeasured": false,
    "MeasurePointValue": 10,
    "MeasureAward": 50
  }
}
