{

  "Challenge": {
    "ChallengeName": "PIV-1860 Custom {previousday}-{randomnumber}",
    "StartDate": "{previousday}",
    "EndDate": "{endofnextmonth}",
    "CustomChallengeActionText": "Future One time challenge",
    "CustomChallengeGoal": 50,
    "CustomChallengeUnit": "time(s)",
    "CustomChallengeTime": "one time",
    "GoalText": "One time 50 only",
    "ChallengerName": "Kelli Ballard",
    "Teams": [ "Executive Leadership", "Finance", "Human Resources", "Information Technology" ]
  }
}
