{
  "Title": "What is a FitScore?",
  "ModalSection1": "A FitScore is a fitness measurement rating that evaluates you on a variety of exercise and compare you to other of the same age and gender in America. The FitScore is designed specifically to offer every participant an ongoing goal.",
  "ModalSection2": "To break down the scoring system, if you can perform the average number of exercises that other your age and gender can perform, then you will receive a score of 100. A score of 100 means you have an average fitness level for you age and gender. If you can do more than the average number, you score will be higher (meaning you are more fit than the average person your age and gender).",
  "ModalSection3": "Example: If you FitScore is an 80, it means you are 20% less fit than someone the same age and gender. On the flip side, if your FitScore is 150 you are 50% more fit than someone you same age and gender. Shooting for 100, or average is a great place to start! In order to determine your FitScore, you must take a FitIn."
}
