{
  "NewActivity": {
    "Name": "PIV-1914 Daily Login - {randomnumber}",
    "Section": "Get Started",
    "Type": "Wellness",
    "ActivityDateRange": "6 Months",
    "HideActivityEndDate": true,
    "TypeOfActivity": "Recurring",
    "Metric": "Log In (10) (Completion)",
    "RecurringType": "Day",
    "MinimumPoints": 5,
    "MaximumPoints": 10,
    "HideNonPointRewardTransaction": false,
    "IsCompletionMeasured": true,
    "MeasurePointValue": 10,
    "MeasureAward": 50
  }
}
