{

  "Challenge": {
    "ChallengeName": "PIV-1725 Custom {previousday}-{randomnumber}",
    "StartDate": "{previousday}",
    "EndDate": "{endofnextmonth}",
    "CustomChallengeActionText": "PIV-1725 One time challenge",
    "CustomChallengeGoal": 20,
    "CustomChallengeUnit": "time(s)",
    "CustomChallengeTime": "one time",
    "GoalText": "One time 20 only",
    "ChallengerName": "Kelli Ballard",
  }
}
