{
  "Header": "Your Workout Plan",
  "Week1Label": "This Week",
  "Week2Label": "Next Week",
  "WorkoutTypes": [ "Full Body", "Cardio", "Run", "Rest Day", "Walk", "Walk 30", "Walk 30+", "Walk 45", "Walk 45+", "Take the Stairs" ]


}
