{
  "NewActivity": {
    "Name": "Monthly Login - {randomnumber}",
    "Section": "Get Started",
    "Type": "Learning",
    "ActivityDateRange": "6 Months",
    "HideActivityEndDate": true,
    "TypeOfActivity": "Recurring",
    "Metric": "Log In (10) (Completion)",
    "RecurringType": "Month",
    "MinimumPoints": 5,
    "MaximumPoints": 10,
    "HideNonPointRewardTransaction": false,
    "IsCompletionMeasured": true,
    "MeasurePointValue": 10,
    "MeasureAward": 50
  }
}
